0.000000000000000; 0.06405425772418982
4.037685060565273; 0.08289374529012794
6.1911170928667545; 0.10173323285606606
7.537012113055177; 0.1205727204220044
8.748317631224765; 0.13941220798794274
9.959623149394346; 0.15825169555388063
11.036339165545087; 0.17558402411454388
11.978465679676987; 0.19140919366993225
12.920592193808886; 0.2064807837226823
13.862718707940772; 0.22155237377543302
14.804845222072686; 0.23662396382818351
15.61238223418573; 0.25018839487565936
16.55450874831763; 0.2614920874152221
17.36204576043069; 0.2743029389600601
18.30417227456259; 0.2878673700075358
19.38088829071333; 0.3006782215523738
20.457604306864056; 0.3142426525998494
21.534320323014796; 0.32856066314996224
22.745625841184406; 0.34363225320271273
23.822341857335132; 0.35719668425018825
24.899057873485887; 0.37226827430293874
25.84118438761776; 0.3865862848530519
27.052489905787354; 0.40090429540316486
27.994616419919254; 0.4152223059532779
28.93674293405114; 0.42878673700075365
29.7442799461642; 0.4415975885455914
30.55181695827727; 0.455162019593067
31.493943472409157; 0.46948003014317985
32.301480484522216; 0.4815373021853805
33.10901749663526; 0.49736247174076853
33.91655450874832; 0.5124340617935191
34.724091520861364; 0.5267520723436323
35.53162853297441; 0.5418236623963827
36.339165545087496; 0.5568952524491332
37.14670255720054; 0.5719668425018838
37.9542395693136; 0.5862848530519968
38.62718707940779; 0.5998492840994724
39.43472409152088; 0.613413715146948
40.24226110363392; 0.6277317256970608
41.04979811574698; 0.6420497362471742
41.99192462987888; 0.6556141672946495
43.068640646029635; 0.669178598342125
44.14535666218035; 0.6857573474001508
45.08748317631223; 0.7030896759608137
45.89502018842529; 0.7166541070082891
46.70255720053835; 0.7272042200452147
47.37550471063257; 0.7400150715900526
48.99057873485869; 0.7596081386586284
50.20188425302827; 0.776186887716654
51.68236877523553; 0.7957799547852298
53.29744279946165; 0.8168801808590805
54.77792732166891; 0.8319517709118311
56.39300134589503; 0.8500376789751317
57.6043068640646; 0.8636021100226073
58.81561238223419; 0.8764129615674453
60.02691790040376; 0.8877166541070083
60.96904441453566; 0.8975131876412961
62.44952893674294; 0.9095704596834966
64.06460296096903; 0.9223813112283346
65.67967698519516; 0.934438583270535
67.6985195154778; 0.9472494348153729
69.71736204576044; 0.9585531273549359
72.1399730820996; 0.972871137905049
74.83176312247643; 0.9819140919366993
78.33109017496635; 0.9909570459683497
81.83041722745627; 0.9962321024868124
85.06056527590847; 0.9992464204973625
88.55989232839836; 0.9992464204973625
92.32839838492599; 0.9962321024868124
96.09690444145359; 0.990203466465712
99.5962314939435; 0.9826676714393368
102.82637954239569; 0.974378296910324
105.92193808882904; 0.9653353428786737
109.55585464333781; 0.9532780708364732
113.59353970390309; 0.9397136397889977
117.63122476446837; 0.9253956292388847
121.93808882907133; 0.907309721175584
125.30282637954242; 0.8937452901281084
128.93674293405115; 0.8786737000753579
132.43606998654104; 0.8643556895252449
136.20457604306864; 0.8485305199698567
140.2422611036339; 0.8319517709118311
143.47240915208613; 0.8183873398643555
147.51009421265138; 0.8018085908063299
151.5477792732167; 0.7837226827430294
155.3162853297443; 0.7686510926902788
160.16150740242261; 0.7475508666164279
164.19919246298787; 0.7309721175584024
167.6985195154778; 0.7174076865109268
171.73620457604306; 0.7008289374529012
175.50471063257066; 0.6857573474001506
179.00403768506055; 0.6721929163526751
183.04172274562586; 0.656367746797287
187.34858681022882; 0.642049736247174
191.520861372813; 0.6262245666917857
195.15477792732167; 0.613413715146948
199.5962314939435; 0.5975885455915597
203.4993270524899; 0.5855312735493593
207.2678331090175; 0.5727204220045214
211.0363391655451; 0.5606631499623209
214.93943472409154; 0.5470987189148456
219.91924629878866; 0.5327807083647323
225.1682368775235; 0.5169555388093443
229.60969044414531; 0.5026375282592311
233.91655450874828; 0.4898266767143933
238.2234185733513; 0.4770158251695552
242.53028263795426; 0.4649585531273548
246.5679676985195; 0.4536548605877918
250.60565275908476; 0.4431047475508664
255.18169582772543; 0.43104747550866584
259.4885598923284; 0.41974378296910286
263.7954239569313; 0.4084400904295401
268.37146702557203; 0.3963828183873397
272.67833109017494; 0.3865862848530517
276.71601615074024; 0.3767897513187639
281.0228802153432; 0.3677467972871137
285.5989232839838; 0.35870384325546323
289.90578734858684; 0.34890730972117545
294.75100942126517; 0.3398643556895252
298.51951547779277; 0.33232856066314953
300.00000000000000; 0.3300678221552372
299.285714285714; 0.3305669988925801
314.9999999999998; 0.2992916943521593
334.285714285714; 0.26503521594684376
354.9999999999998; 0.2352420819490585
381.42857142857116; 0.2024651162790696
410.7142857142855; 0.17266135105204872
444.28571428571394; 0.14731738648947923
479.9999999999997; 0.12494750830564749
516.4285714285711; 0.10406511627906956
556.4285714285711; 0.08764341085271288
600; 0.07940332225913616
